…
<br/>

After completing this step, the dataset is downloaded from the database.

### 4.3 Data import

The dataset is then uploaded to R using following codes. Following table
is an indication of successful data import.

``` r
cucum <- read_csv("cucum_sqlcleaned.csv")
cucum
```

    ## # A tibble: 32 x 5
    ##    location genotype   row column yield
    ##    <chr>    <chr>    <dbl>  <dbl> <dbl>
    ##  1 Clemson  Dasher       1      3  44.2
    ##  2 Clemson  Dasher       2      4  54.1
    ##  3 Clemson  Dasher       3      2  47.2
    ##  4 Clemson  Dasher       4      1  36.7
    ##  5 Clemson  Guardian     1      4  33  
    ##  6 Clemson  Guardian     2      2  13.6
    ##  7 Clemson  Guardian     3      1  44.1
    ##  8 Clemson  Guardian     4      3  35.8
    ##  9 Clemson  Poinsett     1      1  11.5
    ## 10 Clemson  Poinsett     2      3  22.4
    ## # ... with 22 more rows
…
